indivdual3
…
know <- filter(second,second$'Political party affiliation' == "Don't know" & second$'Highest year of school completed' >11)

betterEduacatied <- rbind(strongRep,strongDem)
betterEduacatied <- rbind(betterEduacatied,other)
betterEduacatied <- rbind(betterEduacatied,notStrRep)
betterEduacatied <- rbind(betterEduacatied,notStrDem)
betterEduacatied <- rbind(betterEduacatied,independent)
betterEduacatied <- rbind(betterEduacatied,inrep)
betterEduacatied <- rbind(betterEduacatied,indem)
betterEduacatied <- rbind(betterEduacatied,know)

betterEduacatied

## # A tibble: 27,692 x 12
##    `Gss year for t~ `General happin~ `Religion in wh~ `Political part~
##               <dbl> <chr>            <chr>            <chr>           
##  1             1972 Pretty happy     Not applicable   Strong republic~
##  2             1972 Very happy       Not applicable   Strong republic~
##  3             1972 Very happy       Not applicable   Strong republic~
##  4             1972 Very happy       Not applicable   Strong republic~
##  5             1972 Pretty happy     Not applicable   Strong republic~
##  6             1972 Pretty happy     Not applicable   Strong republic~
##  7             1972 Very happy       Not applicable   Strong republic~
##  8             1972 Pretty happy     Not applicable   Strong republic~
##  9             1972 Pretty happy     Not applicable   Strong republic~
## 10             1972 Pretty happy     Not applicable   Strong republic~
## # ... with 27,682 more rows, and 8 more variables: `Respondents sex` <chr>, `Rs
## #   highest degree` <chr>, `Highest year of school completed` <dbl>, `Number of
## #   children` <chr>, `Marital status` <chr>, `R self-emp or works for
## #   somebody` <chr>, `Respondent id number` <dbl>, `Ballot used for
## #   interview` <chr>
…
