Team
…
know <- filter(second,second$'Political.Party' == "Don't know" & second$'Year.School' >11)

betterEduacatied <- rbind(strongRep,strongDem)
betterEduacatied <- rbind(betterEduacatied,other)
betterEduacatied <- rbind(betterEduacatied,notStrRep)
betterEduacatied <- rbind(betterEduacatied,notStrDem)
betterEduacatied <- rbind(betterEduacatied,independent)
betterEduacatied <- rbind(betterEduacatied,inrep)
betterEduacatied <- rbind(betterEduacatied,indem)
betterEduacatied <- rbind(betterEduacatied,know)

betterEduacatied

## # A tibble: 27,692 x 12
##     Year Happiness Religion Political.Party Sex   Degree Year.School Children
##    <dbl> <chr>     <chr>    <chr>           <chr> <chr>        <dbl>    <dbl>
##  1  1972 Pretty h~ Not app~ Strong republi~ Fema~ Bache~          16        0
##  2  1972 Very hap~ Not app~ Strong republi~ Male  High ~          14        3
##  3  1972 Very hap~ Not app~ Strong republi~ Fema~ High ~          16        2
##  4  1972 Very hap~ Not app~ Strong republi~ Fema~ High ~          14        1
##  5  1972 Pretty h~ Not app~ Strong republi~ Male  Gradu~          19        0
##  6  1972 Pretty h~ Not app~ Strong republi~ Fema~ Gradu~          17        1
##  7  1972 Very hap~ Not app~ Strong republi~ Male  High ~          14        2
##  8  1972 Pretty h~ Not app~ Strong republi~ Male  Bache~          16        2
##  9  1972 Pretty h~ Not app~ Strong republi~ Male  Gradu~          17        3
## 10  1972 Pretty h~ Not app~ Strong republi~ Male  High ~          14        2
## # ... with 27,682 more rows, and 4 more variables: Marital.Status <chr>,
## #   Self.Emp <chr>, ID <dbl>, Ballot <chr>
…
The least educated people have no political affiliation and republicans have more average years of education.

data$`Highest year of school completed` <- as.numeric(as.character(data$`Highest year of school completed`))

## Warning: NAs introduced by coercion

data %>%
  group_by(`Political party affiliation`) %>%
  filter(`Highest year of school completed` > median(`Highest year of school completed`, na.rm = TRUE))

## # A tibble: 27,840 x 12
## # Groups:   Political party affiliation [10]
##    `Gss year for t~ `General happin~ `Religion in wh~ `Political part~
##               <dbl> <chr>            <chr>            <chr>           
##  1             1972 Not too happy    Not applicable   Ind,near dem    
##  2             1972 Not too happy    Not applicable   Not str democrat
##  3             1972 Pretty happy     Not applicable   Ind,near dem    
##  4             1972 Not too happy    Not applicable   Ind,near dem    
##  5             1972 Pretty happy     Not applicable   Strong democrat 
##  6             1972 Not too happy    Not applicable   Strong democrat 
##  7             1972 Very happy       Not applicable   Ind,near rep    
##  8             1972 Very happy       Not applicable   Ind,near dem    
##  9             1972 Very happy       Not applicable   Ind,near rep    
## 10             1972 Pretty happy     Not applicable   Strong republic~
## # ... with 27,830 more rows, and 8 more variables: `Respondents sex` <chr>, `Rs
## #   highest degree` <chr>, `Highest year of school completed` <dbl>, `Number of
## #   children` <chr>, `Marital status` <chr>, `R self-emp or works for
## #   somebody` <chr>, `Respondent id number` <dbl>, `Ballot used for
## #   interview` <chr>
…
